Abdullah Fay, pagac.chloe@example.com, member
Abelardo Feeney, berneice.padberg@example.com, member
Adah McCullough IV, lilyan62@example.net, member
Afton Rice, neil33@example.org, member
Agnes Koelpin, ekoch@example.com, member
Agustin Padberg, zulauf.marcos@example.org, member
Agustina Homenick, lheller@example.com, member
Aidan Cormier PhD, abbie.mcglynn@example.com, member
Alaina Koch, daphney47@example.net, member
Alfreda Kuhlman, marquis95@example.com, member
Alfreda Mueller, celia.langworth@example.com, member
Alyson Satterfield, erna65@example.com, member
Amy Monahan, hirthe.ashley@example.com, member
Anahi Wyman, carmela.wiegand@example.org, member
Aniyah Fahey Jr., hollie50@example.org, member
Annamae Stiedemann, johnson.brandyn@example.com, member
Ansley Grimes, edna06@example.net, member
Antoinette Balistreri, marquardt.amiya@example.com, member
Aracely Halvorson Jr., gus.monahan@example.net, member
Archibald Upton II, sam.marvin@example.org, member
Arnoldo Orn III, rhirthe@example.com, member
Arvilla Paucek II, dwight.beer@example.org, member
Ashton Bruen, pgibson@example.org, member
Asia Bartell, fadel.tiara@example.com, member
Audra Cartwright, orrin15@example.com, member
Aurore Emmerich, alia33@example.net, member
Baby Hickle, kane.mcclure@example.com, member
Bailee Cole, stiedemann.cecile@example.org, member
Brady Cassin, bkiehn@example.org, member
Brandi Ortiz, dare.remington@example.org, member
Breanne Stracke, amie02@example.net, member
Brenden Champlin, leta.kuhn@example.org, member
Brennon Shields, darlene78@example.net, member
Brent Langosh, dee07@example.org, member
Bret Brown, bud25@example.org, member
Briana Kuhlman, grunte@example.com, member
Brielle Abernathy DVM, clifton.gulgowski@example.com, member
Brooklyn Powlowski, imurray@example.net, member
Caden Anderson Sr., tbogisich@example.net, member
Candice Mayert, salvador.grant@example.com, member
Carey Steuber, casper.kristoffer@example.net, member
Caterina Hand V, ncormier@example.com, member
Chanel Hettinger, magdalena69@example.net, member
Charity DuBuque, prudence.shields@example.org, member
Charlie O'Connell, mhills@example.net, member
Chyna Pagac, dee09@example.com, member
Claudine Hettinger, elissa.turcotte@example.org, member
Clifton Boyer DVM, lspencer@example.com, member
Clint Schultz, sipes.leda@example.net, member
Cordie Tremblay, leland87@example.org, member
Corene Carroll, otha.spinka@example.com, member
Coty Langosh, koepp.brock@example.com, member
Cristopher Rowe, ezekiel76@example.net, member
Dalton Christiansen, hamill.kip@example.net, member
Damian Pfeffer, tshanahan@example.com, member
Dawn Reynolds, ksimonis@example.net, member
Dejon Hessel, abernathy.seth@example.org, member
Delpha Langosh, jmcdermott@example.org, member
Delta Braun MD, ghane@example.com, member
Denis Rohan II, omer.moen@example.com, member
Dennis Boyer, jalon.stoltenberg@example.org, member
Diana Reynolds II, judge.steuber@example.net, member
Don Gerhold, dach.loma@example.org, member
Dortha Wisozk, roselyn99@example.org, member
Doyle Leannon, mohammed36@example.net, member
Dr. Amina Daugherty MD, mschulist@example.net, member
Dr. Arden Doyle II, pauline.block@example.com, member
Dr. Arianna Schmeler, plueilwitz@example.net, member
Dr. Aurelio Christiansen I, yreichel@example.net, member
Dr. Bennie Wolff DDS, xshanahan@example.com, member
Dr. Claudie Kreiger, lhill@example.com, member
Dr. Danika Toy PhD, ayana.leannon@example.net, member
Dr. Darian Monahan, retha82@example.net, member
Dr. Dawn Hermann PhD, nblock@example.org, member
Dr. Dorothy Schaefer, gregorio35@example.com, member
Dr. Emery Kris MD, jermaine81@example.net, member
Dr. Felton Jacobs, zita.bartell@example.com, member
Dr. Isadore Donnelly MD, august.greenfelder@example.com, member
Dr. Johnny Ankunding, qmurphy@example.org, member
Dr. June Bayer, jones.albin@example.com, member
Dr. Keith Paucek, kali.waelchi@example.com, member
Dr. Lillie Treutel MD, hailie75@example.com, member
Dr. Quinton Stoltenberg I, walker.coty@example.com, member
Dr. Sigurd Marquardt DVM, oklocko@example.org, member
Dr. Tyreek Satterfield, kaia26@example.org, member
Dr. Viva Conn V, jwest@example.net, member
Earlene Dicki, toy.adelia@example.org, member
Earline Predovic, okuneva.oda@example.com, member
Ed Medhurst, ghand@example.net, member
Eldred Considine, ritchie.abdiel@example.net, member
Eleazar Schulist, tjenkins@example.org, member
Elliott Fay MD, benedict37@example.org, member
Elmo Hoeger, ward.dayton@example.com, member
Emanuel Feeney, trempel@example.org, member
Enid Goyette, gwelch@example.net, member
Enid Jones, amclaughlin@example.net, member
Erling Jast, nitzsche.aleen@example.com, member
Erna Dibbert, utorp@example.net, member
Everette Gutmann Sr., vgrimes@example.com, member
Ewald Larson, emmanuelle.kub@example.net, member
Fredrick Weimann, hessel.clotilde@example.net, member
Furman Orn, maximillia.harber@example.net, member
Gail Kreiger IV, mraz.clementine@example.net, member
Garry Sawayn, kale09@example.org, member
Gennaro Carroll II, ayla35@example.org, member
Genoveva Johns, rbode@example.net, member
Geo Brown, torp.ramona@example.net, member
Georgiana Doyle, katrine01@example.com, member
Giovanny Cronin, vrunolfsson@example.com, member
Glen Veum, august.bins@example.com, member
Gonzalo Ullrich, cassidy18@example.net, member
Greyson Emard, jgreen@example.net, member
Hans Reinger, wendy.schoen@example.com, member
Herminio Breitenberg, bhowe@example.net, member
Hettie Spencer, shanie63@example.com, member
Horacio Rath, beer.flavio@example.net, member
Horacio Spencer, rosalinda.cartwright@example.com, member
Hyman West, reanna.ruecker@example.org, member
Jacinto Renner III, shields.micheal@example.org, member
Jackie Olson, xdavis@example.org, member
Jamie Brown DDS, boyle.lesley@example.org, member
Jamir Heidenreich IV, schuster.fay@example.org, member
Jasmin Greenholt DDS, madeline.grant@example.org, member
Jayme Nicolas, ugrady@example.net, member
Jazlyn Schamberger, bernita73@example.org, member
Jed Greenfelder, dicki.julia@example.org, member
Jennyfer Jacobi, braden.ankunding@example.com, member
Jerad Kshlerin IV, ntorphy@example.org, member
Jermey Harvey, cassandra58@example.com, member
Jerome Bode, dax04@example.org, member
Jerome Witting, robel.eunice@example.net, member
Jewell Balistreri, ethyl39@example.net, member
Joanie Dickens, satterfield.avery@example.org, member
Johnson Wolf, myron.mccullough@example.org, member
Jonathon Schmeler, rcarter@example.org, member
Justen Brekke, delta.bergnaum@example.org, member
Justus Corkery, tessie.bernier@example.com, member
Kaden Feil, bogisich.tiffany@example.net, member
Kaia Hermann, russ.mcglynn@example.org, member
Karianne Cassin, graham.runte@example.net, member
Karianne Hodkiewicz, schultz.alexa@example.com, member
Kayden Abshire, sandra.rohan@example.com, member
Kellen Adams, ervin11@example.org, member
Kellie Kuvalis II, kfay@example.net, member
Kelly Cruickshank, bartoletti.kenton@example.net, member
Kennith Yundt, urunolfsson@example.org, member
Kris Nolan, jarvis07@example.org, member
Lafayette Christiansen II, hwalter@example.net, member
Landen Eichmann, fhills@example.org, member
Laverne Cassin, djohnston@example.org, member
Lawson Pfannerstill, shawn17@example.org, member
Lelia Botsford, araceli.aufderhar@example.org, member
Liana Wisozk, gleichner.camilla@example.org, member
Lilian Jerde, toy.clay@example.org, member
Lindsay Gusikowski, parker.morissette@example.com, member
London Feest, wiza.eloy@example.org, member
Lourdes Jerde Jr., ktowne@example.com, member
Lowell Johnson, braun.alvina@example.org, member
Lysanne Marks Sr., ncorwin@example.com, member
Maddison Zemlak, ukoelpin@example.com, member
Maiya Schinner, kris.hilbert@example.org, member
Malika Lueilwitz, waters.jaiden@example.net, member
Marcia Adams, octavia.ruecker@example.com, member
Marguerite Swaniawski, kohler.paolo@example.net, member
Marina Harber, robbie.effertz@example.net, member
Marisol Hansen, stefanie.rodriguez@example.com, member
Maverick Hegmann, okuneva.hyman@example.net, member
Melody Wisoky DVM, wvolkman@example.com, member
Melvin Quigley, lsteuber@example.com, member
Melvina Satterfield, corkery.hardy@example.net, member
Mikayla Boehm, skiehn@example.org, member
Millie Johnson, mckenzie.nader@example.net, member
Millie Wisozk, conner.fay@example.net, member
Miss Amy Cole, precious42@example.net, member
Miss Billie Fay IV, qmohr@example.com, member
Miss Charlene Abernathy MD, nikki.crona@example.org, member
Miss Emilia Gottlieb, kristina76@example.org, member
Miss Jana Jenkins, michelle22@example.net, member
Miss Kathryne Bartoletti, thintz@example.org, member
Miss Rhea Smith Jr., nbauch@example.org, member
Miss Stephany King MD, buckridge.rex@example.org, member
Mr. Alfonso Stoltenberg DVM, moore.tracy@example.org, member
Mr. Brendon Stracke, russ02@example.net, member
Mr. Clement Williamson, charles.kreiger@example.net, member
Mr. Dion Purdy Sr., kaden.bosco@example.org, member
Mr. Donavon Parisian, kayli90@example.org, member
Mr. Earl Hauck, consuelo.lebsack@example.net, member
Mr. Elroy Daugherty V, koelpin.ally@example.org, member
Mr. Gerson Hermiston I, nya86@example.org, member
Mr. Jalon Morar MD, janae.rau@example.org, member
Mr. Jerome Hoppe, vida.murray@example.net, member
Mr. Joseph Reichel, albertha.spencer@example.com, member
Mr. Karl Hayes Jr., qpagac@example.org, member
Mr. Lowell Hansen, victoria18@example.org, member
Mr. Murray Koch, ruby33@example.com, member
Mr. Sage Hermiston Sr., ismael04@example.com, member
Mr. Stanford Hill, imante@example.com, member
Mr. Tod Gislason, abel.franecki@example.org, member
Mr. Waino Wilkinson, alanis87@example.org, member
Mr. Winfield Dickinson, bernadine36@example.com, member
Mrs. Antonia Marquardt IV, pollich.martina@example.org, member
Mrs. Arlene Heaney, cmclaughlin@example.org, member
Mrs. Brenna Heaney III, imante@example.org, member
Mrs. Celestine Marvin, rosendo39@example.com, member
Mrs. Danyka Boyer, qheathcote@example.net, member
Mrs. Euna Keeling, troy.jacobs@example.com, member
Mrs. Madie Pagac Jr., wintheiser.jeramy@example.net, member
Ms. Andreanne Schuppe MD, urunolfsson@example.com, member
Ms. Ariane Schoen IV, champlin.maybell@example.com, member
Ms. Concepcion Goyette, carmel57@example.net, member
Ms. Emely Mills DVM, bernita65@example.org, member
Ms. Erna Casper Jr., bpurdy@example.com, member
Ms. Kaitlin Greenfelder Jr., alayna.little@example.com, member
Ms. Lenore Grady, nyah31@example.org, member
Ms. Litzy Littel, vito46@example.com, member
Ms. Loren Bednar, christop65@example.org, member
Ms. Retta Bauch DVM, pauline45@example.net, member
Ms. Una Runolfsdottir PhD, annamae05@example.org, member
Ms. Wanda Barrows III, elinore92@example.com, member
Muhammad Bins, wchamplin@example.org, member
Myrtle Herman PhD, murray.jalen@example.net, member
Nelda Armstrong, cody96@example.net, member
Nicola Hessel, ward.delores@example.com, member
Nikki Rowe, macejkovic.carson@example.org, member
Noelia Ledner PhD, bernhard.elwyn@example.com, member
Ofelia Abshire, reilly.alia@example.com, member
Olen Ruecker, anabel67@example.org, member
Orland Senger, tianna65@example.net, member
Orval Muller, hansen.alfredo@example.net, member
Paula Heathcote, schimmel.teresa@example.org, member
Phyllis Erdman, zmccullough@example.net, member
Prof. Arely Sawayn, briana21@example.org, member
Prof. Brian Lebsack V, carolyne47@example.net, member
Prof. Citlalli Gaylord Sr., davis.chris@example.net, member
Prof. Corene Kris Sr., hrunolfsdottir@example.com, member
Prof. Dusty Spencer I, madelynn.mosciski@example.net, member
Prof. Helmer Brakus DDS, ygleason@example.net, member
Prof. Issac McKenzie, zbrekke@example.com, member
Prof. Jamie Rau, oconnell.yadira@example.net, member
Prof. Janelle Crona DVM, christa.fahey@example.net, member
Prof. Maribel Schowalter, wava.dubuque@example.org, member
Prof. Melvin VonRueden DDS, utoy@example.net, member
Prof. Oswald Homenick, bailey.karson@example.net, member
Prof. Samantha West Jr., weimann.maryjane@example.com, member
Prof. Silas Rippin DDS, carli.rodriguez@example.org, member
Prof. Tracey Weber, colt57@example.org, member
Prof. Verdie Ullrich, blair.ward@example.net, member
Prof. Virgie McGlynn, alice.murray@example.net, member
Raina Graham, cronin.fanny@example.com, member
Raleigh Schaefer, opfannerstill@example.org, member
Ransom Bergnaum I, jmueller@example.com, member
Ray Williamson, bernie26@example.com, member
Reba Little, clara41@example.net, member
Richmond Reilly, emmy56@example.com, member
Roger Gaylord, ybode@example.org, member
Rollin Reichel Sr., aliyah.kuvalis@example.org, member
Rosanna Walker, milton.pouros@example.net, member
Rosemary Lubowitz I, hansen.darrin@example.com, member
Rowan Sawayn II, kunde.dustin@example.net, member
Sadie Douglas, carey.kris@example.net, member
Sage Barrows, wjaskolski@example.net, member
Samson Dicki, addie.botsford@example.com, member
Sandy Raynor IV, chaim55@example.net, member
Sarina Parker, mason10@example.com, member
Scot Howe Jr., rhettinger@example.com, member
Seamus Mayer, dion83@example.com, member
Sebastian Gutkowski, aracely23@example.org, member
Sherman Murazik, keon78@example.org, member
Sim Bergnaum, arnaldo.quitzon@example.net, member
Sofia Gorczany, nrodriguez@example.com, member
Soledad Gulgowski, flatley.jaleel@example.com, member
Sophia Conn, klein.troy@example.org, member
Stella Mueller, shane02@example.com, member
Suzanne Hilpert, earnestine.mann@example.net, member
Tahir Hoxha, tahir.hoxha@gmail.com, admin
Telly Okuneva, dmoore@example.com, member
Terrill Kassulke, rita.ferry@example.com, member
Theodora Goyette, janice62@example.com, member
Theresa Will, jbecker@example.org, member
Tia Metz, lavina.harber@example.net, member
Tillman Bernier, bbartell@example.org, member
Timmothy Hill I, larson.leopold@example.com, member
Tony Fritsch, cali.herzog@example.com, member
Valentine Bergnaum, elyse90@example.net, member
Vanessa Beer III, qankunding@example.org, member
Victoria Keebler, ukoch@example.org, member
Viola Fahey, collier.bria@example.com, member
Viviane Gibson, anibal06@example.net, member
Vivienne Hane, utremblay@example.org, member
Vivienne Klocko V, abigayle.grant@example.org, member
Vivienne Reilly, ustrosin@example.net, member
Waino Schumm, millie.hackett@example.com, member
Wallace Hayes, nathaniel.heidenreich@example.net, member
Walton West, lamont18@example.com, member
Winifred Kuhlman, yterry@example.org, member
Woodrow Hermiston, dolly.spinka@example.net, member
Yoshiko Bayer, terrance.glover@example.com, member
Zack Thiel, thad.white@example.org, member
Zane Gibson, arianna47@example.com, member
Zelda Ullrich, schamberger.mazie@example.org, member
